analysis_module11
…
# This enables the analysis to be reproducible when random numbers are used 
set.seed(123)
# Put 3/4 of the data into the training set
data_split <- initial_split(mydata, prop = 7/10, strata = BodyTemp)

# Create data frames for the two sets:
train_data <- training(data_split)
test_data  <- testing(data_split)

set.seed(123)
folds <- vfold_cv(train_data, v = 5, repeats = 5, strata = BodyTemp)
folds

## #  5-fold cross-validation repeated 5 times using stratification 
## # A tibble: 25 × 3
##    splits           id      id2  
##    <list>           <chr>   <chr>
##  1 <split [323/83]> Repeat1 Fold1
##  2 <split [323/83]> Repeat1 Fold2
##  3 <split [325/81]> Repeat1 Fold3
##  4 <split [326/80]> Repeat1 Fold4
##  5 <split [327/79]> Repeat1 Fold5
##  6 <split [323/83]> Repeat2 Fold1
##  7 <split [323/83]> Repeat2 Fold2
##  8 <split [325/81]> Repeat2 Fold3
##  9 <split [326/80]> Repeat2 Fold4
## 10 <split [327/79]> Repeat2 Fold5
## # … with 15 more rows
…
## Decision Tree Model Specification (regression)
## 
## Main Arguments:
##   cost_complexity = tune()
##   tree_depth = tune()
## 
## Computational engine: rpart

tree_grid <- grid_regular(cost_complexity(),
                          tree_depth(),
                          levels = 5)

tree_grid

## # A tibble: 25 × 2
##    cost_complexity tree_depth
##              <dbl>      <int>
##  1    0.0000000001          1
##  2    0.0000000178          1
##  3    0.00000316            1
##  4    0.000562              1
##  5    0.1                   1
##  6    0.0000000001          4
##  7    0.0000000178          4
##  8    0.00000316            4
##  9    0.000562              4
## 10    0.1                   4
## # … with 15 more rows
…
## ! Fold4, Repeat5: internal: A correlation computation is required, but `estimate` is const...

## ! Fold5, Repeat5: internal: A correlation computation is required, but `estimate` is const...

tree_res

## Warning: This tuning result has notes. Example notes on model fitting include:
## internal: A correlation computation is required, but `estimate` is constant and has 0 standard deviation, resulting in a divide by 0 error. `NA` will be returned.
## internal: A correlation computation is required, but `estimate` is constant and has 0 standard deviation, resulting in a divide by 0 error. `NA` will be returned.
## internal: A correlation computation is required, but `estimate` is constant and has 0 standard deviation, resulting in a divide by 0 error. `NA` will be returned.

## # Tuning results
## # 5-fold cross-validation repeated 5 times using stratification 
## # A tibble: 25 × 5
##    splits           id      id2   .metrics          .notes          
##    <list>           <chr>   <chr> <list>            <list>          
##  1 <split [323/83]> Repeat1 Fold1 <tibble [50 × 6]> <tibble [1 × 1]>
##  2 <split [323/83]> Repeat1 Fold2 <tibble [50 × 6]> <tibble [1 × 1]>
##  3 <split [325/81]> Repeat1 Fold3 <tibble [50 × 6]> <tibble [1 × 1]>
##  4 <split [326/80]> Repeat1 Fold4 <tibble [50 × 6]> <tibble [1 × 1]>
##  5 <split [327/79]> Repeat1 Fold5 <tibble [50 × 6]> <tibble [1 × 1]>
##  6 <split [323/83]> Repeat2 Fold1 <tibble [50 × 6]> <tibble [1 × 1]>
##  7 <split [323/83]> Repeat2 Fold2 <tibble [50 × 6]> <tibble [1 × 1]>
##  8 <split [325/81]> Repeat2 Fold3 <tibble [50 × 6]> <tibble [1 × 1]>
##  9 <split [326/80]> Repeat2 Fold4 <tibble [50 × 6]> <tibble [1 × 1]>
## 10 <split [327/79]> Repeat2 Fold5 <tibble [50 × 6]> <tibble [1 × 1]>
## # … with 15 more rows
…
# residue plots, clearly shows a pattern, which is not good

a = a %>% filter(.metric=="rmse") %>% arrange(mean)
a

## # A tibble: 25 × 8
##    cost_complexity tree_depth .metric .estimator  mean     n std_err .config    
##              <dbl>      <int> <chr>   <chr>      <dbl> <int>   <dbl> <chr>      
##  1    0.0000000001          1 rmse    standard    1.21    25  0.0258 Preprocess…
##  2    0.0000000178          1 rmse    standard    1.21    25  0.0258 Preprocess…
##  3    0.00000316            1 rmse    standard    1.21    25  0.0258 Preprocess…
##  4    0.000562              1 rmse    standard    1.21    25  0.0258 Preprocess…
##  5    0.1                   1 rmse    standard    1.21    25  0.0256 Preprocess…
##  6    0.1                   4 rmse    standard    1.21    25  0.0256 Preprocess…
##  7    0.1                   8 rmse    standard    1.21    25  0.0256 Preprocess…
##  8    0.1                  11 rmse    standard    1.21    25  0.0256 Preprocess…
##  9    0.1                  15 rmse    standard    1.21    25  0.0256 Preprocess…
## 10    0.0000000001          4 rmse    standard    1.27    25  0.0256 Preprocess…
## # … with 15 more rows
…
# residue plots, clearly shows a pattern, which is not good

b = b %>% filter(.metric=="rmse") %>% arrange(mean)
b

## # A tibble: 30 × 7
##    penalty .metric .estimator  mean     n std_err .config              
##      <dbl> <chr>   <chr>      <dbl> <int>   <dbl> <chr>                
##  1  0.0788 rmse    standard    1.19    25  0.0258 Preprocessor1_Model29
##  2  0.0621 rmse    standard    1.19    25  0.0260 Preprocessor1_Model28
##  3  0.1    rmse    standard    1.19    25  0.0256 Preprocessor1_Model30
##  4  0.0489 rmse    standard    1.19    25  0.0261 Preprocessor1_Model27
##  5  0.0386 rmse    standard    1.19    25  0.0261 Preprocessor1_Model26
##  6  0.0304 rmse    standard    1.19    25  0.0262 Preprocessor1_Model25
##  7  0.0240 rmse    standard    1.20    25  0.0263 Preprocessor1_Model24
##  8  0.0189 rmse    standard    1.20    25  0.0264 Preprocessor1_Model23
##  9  0.0149 rmse    standard    1.20    25  0.0265 Preprocessor1_Model22
## 10  0.0117 rmse    standard    1.20    25  0.0265 Preprocessor1_Model21
## # … with 20 more rows
…
# residue plots, clearly shows a pattern, which is not good

c = c %>% filter(.metric=="rmse") %>% arrange(mean)
c

## # A tibble: 25 × 8
##     mtry min_n .metric .estimator  mean     n std_err .config              
##    <int> <int> <chr>   <chr>      <dbl> <int>   <dbl> <chr>                
##  1     2    33 rmse    standard    1.20    25  0.0258 Preprocessor1_Model10
##  2     3    23 rmse    standard    1.20    25  0.0258 Preprocessor1_Model13
##  3     7    37 rmse    standard    1.20    25  0.0259 Preprocessor1_Model25
##  4     4    14 rmse    standard    1.21    25  0.0256 Preprocessor1_Model06
##  5    12    35 rmse    standard    1.21    25  0.0257 Preprocessor1_Model15
##  6    20    40 rmse    standard    1.21    25  0.0253 Preprocessor1_Model23
##  7    15    28 rmse    standard    1.22    25  0.0253 Preprocessor1_Model03
##  8     6    12 rmse    standard    1.22    25  0.0253 Preprocessor1_Model18
##  9    25    36 rmse    standard    1.22    25  0.0249 Preprocessor1_Model09
## 10     8    15 rmse    standard    1.22    25  0.0254 Preprocessor1_Model21
## # … with 15 more rows
…
