Tidy Tuesday
…
## Decision Tree Model Specification (regression)
## 
## Main Arguments:
##   cost_complexity = tune()
##   tree_depth = tune()
## 
## Computational engine: rpart

tree_grid <- grid_regular(cost_complexity(),
                          tree_depth(),
                          levels = 5)

tree_grid

## # A tibble: 25 × 2
##    cost_complexity tree_depth
##              <dbl>      <int>
##  1    0.0000000001          1
##  2    0.0000000178          1
##  3    0.00000316            1
##  4    0.000562              1
##  5    0.1                   1
##  6    0.0000000001          4
##  7    0.0000000178          4
##  8    0.00000316            4
##  9    0.000562              4
## 10    0.1                   4
## # … with 15 more rows
…
## ! Fold1, Repeat4: internal: A correlation computation is required, but `estimate` is const...

## ! Fold4, Repeat5: internal: A correlation computation is required, but `estimate` is const...

tree_res

## # Tuning results
## # 5-fold cross-validation repeated 5 times using stratification 
## # A tibble: 25 × 5
##    splits           id      id2   .metrics          .notes          
##    <list>           <chr>   <chr> <list>            <list>          
##  1 <split [148/41]> Repeat1 Fold1 <tibble [50 × 6]> <tibble [0 × 1]>
##  2 <split [149/40]> Repeat1 Fold2 <tibble [50 × 6]> <tibble [0 × 1]>
##  3 <split [151/38]> Repeat1 Fold3 <tibble [50 × 6]> <tibble [0 × 1]>
##  4 <split [153/36]> Repeat1 Fold4 <tibble [50 × 6]> <tibble [0 × 1]>
##  5 <split [155/34]> Repeat1 Fold5 <tibble [50 × 6]> <tibble [0 × 1]>
##  6 <split [148/41]> Repeat2 Fold1 <tibble [50 × 6]> <tibble [0 × 1]>
##  7 <split [149/40]> Repeat2 Fold2 <tibble [50 × 6]> <tibble [0 × 1]>
##  8 <split [151/38]> Repeat2 Fold3 <tibble [50 × 6]> <tibble [0 × 1]>
##  9 <split [153/36]> Repeat2 Fold4 <tibble [50 × 6]> <tibble [0 × 1]>
## 10 <split [155/34]> Repeat2 Fold5 <tibble [50 × 6]> <tibble [0 × 1]>
## # … with 15 more rows
…
